﻿{
  "$schema": "http://schemastore.org/schemas/json/webjob-publish-settings.json",
  "webJobName": "WebJobDeletedItems",
  "startTime": "2015-10-16T01:00:00-07:00",
  "endTime": "2015-10-17T03:00:00-07:00",
  "jobRecurrenceFrequency": "Day",
  "interval": 1,
  "runMode": "Scheduled"
}